{
  "type": "service_account",
  "project_id": "anhproject-216809",
  "private_key_id": "926ae8ce2c0f227aca5a39b490a1fc53e58e7e43",
  "private_key": "-----BEGIN PRIVATE KEY-----\nMIIEvQIBADANBgkqhkiG9w0BAQEFAASCBKcwggSjAgEAAoIBAQDB0lU5BU5sUZIM\nSkxpI7yiaNusqWHr2MuyKrGSHPuVBoIpKEINEoC+6thm84KuZqN/9ydFtQhc42x7\nfPtep6GcNNsJLjuiEg6bGQJAtkyms5x0o7pFZSorDg+aAkWsyQswS+J0pcIQnGVP\nkxIy9mRuCoch9A7si/ALXIe4Kw3tFjen73vSMimJLNNYHF0UMtMkSq2bN1aru2dd\nWuqNllzhBfC31Bd5OdA6EaPuY+Ic1wVpJjA1h2aKPMtniZoJl15BB8ALNdx2ZeKu\nksaag1OeV+NY+44VcxLek4ree23/4+OB537v2QQsiID0QZIl6OneFe7Du6aUuE/G\nIAqoKDVdAgMBAAECggEAGz7SXQgabI6Q3apqEFOGNjxQOPa8fZdFlv96Y6QwV1QJ\nYvi2RDkoIO5JSjuL0LE75YacHifjC4+qlbdNbJJa3ObvLVyy5Ebuh63dy7P0lXBl\nG15SlmOwqEm7NraADdha+siIBkawv34Encl6QvCw0GkpcsPofybysN4qc+CVfhCl\nT6N6wKrGrs7rPObX3UdsZsN7spbOrUX6hYQHu+HxAAbxRM8uP96Of2ngrZ6nIf93\ndAqPJXSqf/YCnqWlG9XAD3N57QWlqNd4Gv09Oo9wzdN5SFJUw6UUZgbx2DzWAWc9\ng7M9ZJCeoTuNPclSvRc1oH6TOcPET7+mbZGpQRh8bwKBgQDkrvwwmin4/+gpALCl\n02G4VEuyIPzzmfQtgay7ptzm3mmbQQkEUeIN/MZqQlyNyeEhE7r6dC3OISPD4cYt\nCHLteRTA8NHnJ9wCSfkV7/SP+RaDz8qr7tGVQSZEigfFo7xgAvjM4osu4oPAdXjw\nG1Ui7dbTnxXCS8pcRpfnj+pHowKBgQDY+UomNvKL8Y4UtNCp14hgrlj51f+36ztD\nCtX0jFaJq9trRVhnlk6XoHlPRwlg8x2k/W07ura6q4aG7XnZXZkZT8qcDTd96h8y\n15QyIzzZFzizQQHyT3vn3+MSsbDFdivZ1fjnt3ctQdf/4orC9YBRuLvT7RXgaHFJ\nrXaipl9e/wKBgQCQpE1GwHvDzrkdFh6lBCpO2KJ4LH1R5xKWpeqHVmdqb0sEtAHs\nBY6hojwtgYPg+su2jDA7sbg3JKbmgqtCWJG4uljyIF/jgUaa/AbcZUWeusIO5SMf\n1JIjgW2e9F8uFv5TDA4qKTA3m3YSCTtRQzh6O00h1QGCP0XjT5NNF63rWQKBgDKb\ngrYDHvORNeiSfBEBWqfiQpKTXX/SeBIdFuZhTVXzJcyRchtHLbGkFmdtVDyut/1h\ntva1iCVmGIykG0Wd1TXYLJPVaVoPH5PGQKSpH2orRmhZA1E3RNlCmT4k/+wuse+v\nPs0dN8jwkKb4ehEbHgDxq620oOOkuLfMo90wHRKVAoGAVH+0NHv6BPvgZrN32AIg\nuhRQSqvCKWIQLG89aiXppr6LLk7z43weWRVMip15h4LhxLn+VTxmprVvH9J3+Zp8\ngiDhJZ6xaEMSVKInxsgsDHR5XvTqcLFWUtgg34VftCw6iDfxIIHhjOZqjxoqNxME\nwrbqoFSZLHrMxcJf/JMEJNU=\n-----END PRIVATE KEY-----\n",
  "client_email": "compute-engine-admin@anhproject-216809.iam.gserviceaccount.com",
  "client_id": "107211015113574535878",
  "auth_uri": "https://accounts.google.com/o/oauth2/auth",
  "token_uri": "https://oauth2.googleapis.com/token",
  "auth_provider_x509_cert_url": "https://www.googleapis.com/oauth2/v1/certs",
  "client_x509_cert_url": "https://www.googleapis.com/robot/v1/metadata/x509/compute-engine-admin%40anhproject-216809.iam.gserviceaccount.com"
}
